EESchema Schematic File Version 4
EELAYER 30 0
EELAYER END
$Descr A4 11693 8268
encoding utf-8
Sheet 1 1
Title ""
Date ""
Rev ""
Comp ""
Comment1 ""
Comment2 ""
Comment3 ""
Comment4 ""
$EndDescr
$Comp
L SSD1306-128x64_OLED:SSD1306 Brd1
U 1 1 60C25886
P 5200 3950
F 0 "Brd1" V 4785 4008 50  0000 C CNN
F 1 "SSD1306" V 4876 4008 50  0000 C CNN
F 2 "SSD1306:128x64OLED" H 5200 4200 50  0001 C CNN
F 3 "" H 5200 4200 50  0001 C CNN
	1    5200 3950
	0    1    1    0   
$EndComp
$Comp
L Device:R_POT RV1
U 1 1 60C2EF4A
P 5400 4600
F 0 "RV1" H 5331 4646 50  0000 R CNN
F 1 "R_POT" H 5331 4555 50  0000 R CNN
F 2 "Potentiometer_THT:Potentiometer_Alps_RK09K_Single_Vertical" H 5400 4600 50  0001 C CNN
F 3 "~" H 5400 4600 50  0001 C CNN
	1    5400 4600
	1    0    0    -1  
$EndComp
$Comp
L Motor:Fan_4pin M2
U 1 1 60C33FB1
P 4550 3850
F 0 "M2" V 4845 3900 50  0000 C CNN
F 1 "Fan_4pin" V 4754 3900 50  0000 C CNN
F 2 "Connector:FanPinHeader_1x04_P2.54mm_Vertical" H 4550 3860 50  0001 C CNN
F 3 "http://www.formfactors.org/developer%5Cspecs%5Crev1_2_public.pdf" H 4550 3860 50  0001 C CNN
	1    4550 3850
	0    -1   -1   0   
$EndComp
$Comp
L Motor:Fan_4pin M1
U 1 1 60C36D09
P 3950 3850
F 0 "M1" V 4245 3900 50  0000 C CNN
F 1 "Fan_4pin" V 4154 3900 50  0000 C CNN
F 2 "Connector:FanPinHeader_1x04_P2.54mm_Vertical" H 3950 3860 50  0001 C CNN
F 3 "http://www.formfactors.org/developer%5Cspecs%5Crev1_2_public.pdf" H 3950 3860 50  0001 C CNN
	1    3950 3850
	0    -1   -1   0   
$EndComp
$Comp
L Device:R R2
U 1 1 60C4A846
P 5650 2450
F 0 "R2" V 5443 2450 50  0000 C CNN
F 1 "330" V 5534 2450 50  0000 C CNN
F 2 "Resistor_THT:R_Axial_DIN0309_L9.0mm_D3.2mm_P12.70mm_Horizontal" V 5580 2450 50  0001 C CNN
F 3 "~" H 5650 2450 50  0001 C CNN
	1    5650 2450
	0    1    1    0   
$EndComp
$Comp
L Device:R R1
U 1 1 60C4C0E3
P 6100 2450
F 0 "R1" V 5893 2450 50  0000 C CNN
F 1 "470" V 5984 2450 50  0000 C CNN
F 2 "Resistor_THT:R_Axial_DIN0309_L9.0mm_D3.2mm_P12.70mm_Horizontal" V 6030 2450 50  0001 C CNN
F 3 "~" H 6100 2450 50  0001 C CNN
	1    6100 2450
	0    1    1    0   
$EndComp
$Comp
L power:+12V #PWR0102
U 1 1 60C4D958
P 6700 2550
F 0 "#PWR0102" H 6700 2400 50  0001 C CNN
F 1 "+12V" V 6715 2678 50  0000 L CNN
F 2 "" H 6700 2550 50  0001 C CNN
F 3 "" H 6700 2550 50  0001 C CNN
	1    6700 2550
	-1   0    0    1   
$EndComp
Wire Wire Line
	5550 4600 6150 4600
Wire Wire Line
	4650 4400 6150 4400
Wire Wire Line
	4650 4150 4650 4400
Wire Wire Line
	4050 4400 4650 4400
Wire Wire Line
	4050 4150 4050 4400
Connection ~ 4650 4400
$Comp
L SparkFun-Boards:SPARKFUN_PRO_MICRO B1
U 1 1 60C6BF79
P 6600 4150
F 0 "B1" H 6600 5060 45  0000 C CNN
F 1 "SPARKFUN_PRO_MICRO" H 6600 4976 45  0000 C CNN
F 2 "SPARKFUN_PRO_MICRO" H 6600 4950 20  0001 C CNN
F 3 "" H 6600 4150 50  0001 C CNN
F 4 "XXX-00000" H 6600 4881 60  0000 C CNN "Field4"
	1    6600 4150
	1    0    0    -1  
$EndComp
Wire Wire Line
	6150 4000 5850 4000
Wire Wire Line
	5850 4000 5850 4100
Wire Wire Line
	5850 4100 5550 4100
Wire Wire Line
	5550 4000 5750 4000
Wire Wire Line
	5750 4000 5750 4050
Wire Wire Line
	5750 4050 6000 4050
Wire Wire Line
	6000 4050 6000 4100
Wire Wire Line
	6000 4100 6150 4100
$Comp
L Connector:Barrel_Jack_MountingPin J1
U 1 1 60C888FA
P 7000 2450
F 0 "J1" H 6770 2322 50  0000 R CNN
F 1 "Barrel_Jack_MountingPin" H 6770 2413 50  0000 R CNN
F 2 "Connector_BarrelJack:BarrelJack_CUI_PJ-102AH_Horizontal" H 7050 2410 50  0001 C CNN
F 3 "~" H 7050 2410 50  0001 C CNN
	1    7000 2450
	-1   0    0    1   
$EndComp
Wire Wire Line
	6700 2350 6600 2350
Wire Wire Line
	5350 2350 5350 2450
Wire Wire Line
	5350 2450 5500 2450
Wire Wire Line
	5350 2450 5350 3000
Connection ~ 5350 2450
Wire Wire Line
	5800 2450 5900 2450
Wire Wire Line
	5900 2450 5900 2750
Connection ~ 5900 2450
Wire Wire Line
	5900 2450 5950 2450
Wire Wire Line
	6250 2450 6250 2550
Wire Wire Line
	6700 2550 6250 2550
Connection ~ 6700 2550
Connection ~ 6250 2550
Wire Wire Line
	6250 2550 6250 2850
Wire Wire Line
	3650 2850 4250 2850
Wire Wire Line
	3650 2850 3650 3850
Wire Wire Line
	4250 3850 4250 2850
Connection ~ 4250 2850
Wire Wire Line
	4250 2850 6250 2850
Wire Wire Line
	4150 3850 4150 3000
Wire Wire Line
	5350 3000 4750 3000
Wire Wire Line
	4750 3850 4750 3000
Connection ~ 4750 3000
Wire Wire Line
	4750 3000 4150 3000
Wire Wire Line
	5350 3000 6050 3000
Connection ~ 5350 3000
Wire Wire Line
	6050 3000 6050 3800
Wire Wire Line
	6050 4750 5400 4750
Wire Wire Line
	6150 3800 6050 3800
Connection ~ 6050 3800
Wire Wire Line
	6050 3800 6050 4750
Wire Wire Line
	5550 3800 6050 3800
Wire Wire Line
	7050 3600 7050 2750
Wire Wire Line
	7050 2750 5900 2750
Wire Wire Line
	5400 4450 5700 4450
Wire Wire Line
	5700 4450 5700 3900
Wire Wire Line
	5700 3900 5550 3900
Wire Wire Line
	5700 3900 5700 3150
Wire Wire Line
	5700 3150 7200 3150
Wire Wire Line
	7200 3150 7200 3900
Wire Wire Line
	7200 3900 7050 3900
Connection ~ 5700 3900
Wire Wire Line
	6600 2350 6600 2150
Wire Wire Line
	6600 2150 7000 2150
Connection ~ 6600 2350
Wire Wire Line
	6600 2350 5350 2350
$EndSCHEMATC
